{
    "editor": [
        {
            "icon": "",
            "key": "general",
            "header": "General",
            "disabled": false,
            "fields": [
                {
                    "key": "coin-padding",
                    "header": "Coin Padding",
                    "type": "text"
                }
            ]
        },
        {
            "icon": "",
            "key": "images",
            "header": "Images",
            "disabled": false,
            "fields": [
                {
                    "key": "coin-a",
                    "header": "Coin A",
                    "type": "image"
                },
                {
                    "key": "coin-b",
                    "header": "Coin B",
                    "type": "image"
                },
                {
                    "key": "coin-c",
                    "header": "Coin C",
                    "type": "image"
                },
                {
                    "key": "coin-d",
                    "header": "Coin D",
                    "type": "image"
                },
                {
                    "key": "coin-e",
                    "header": "Coin e",
                    "type": "image"
                },
                {
                    "key": "coin-f",
                    "header": "Coin f",
                    "type": "image"
                }
            ]
        }
    ],
    "config": {
        "general": {
            "coin-padding": "8px"
        },
        "images": {
            "coin-a": "http://localhost:8080/protected/project-picker/0da53c87679f4ce997c30abbc4c796d2",
            "coin-b": "http://playcent.com/protected/project-picker/7d0aa61294f3416f943258c7e6c76b2a",
            "coin-c": "http://playcent.com/protected/project-picker/00fa2801f7a74374a4de895e3c81617d",
            "coin-d": "http://playcent.com/protected/project-picker/6e80087f40074cb0b254afba93442b90",
            "coin-e": "http://playcent.com/protected/project-picker/7cbfb2448af947a49ec0d8120a58906e",
            "coin-f": "http://playcent.com/protected/project-picker/950fd18129f64654935be5fed86493e3"
        }
    }
}